Marker:,Sarah Beecham
Total mark:,7.53 (out of 10)

,,Note 1: You could only get marks for either 'Population' or 'Problem'. So it is normal that one of the two section will have 0 marks
,,"Note 2: If you have a mark in 'All PICO elements correct!' there will be no marks in any of the other PICO-related sections.
 This means that you have full marks for all PICO elements even though the individual section show 0 marks - ignore those entries"
Element,Mark,Comment
Report has Research Question?,0.9,"I recommend avoiding composite questions, i.e. select one outcome, either detection or restriction as these are two different things.  While you will want to do both, it may involve a two phased approach, with different methodologies for both.  Having read to the bottom or your assignment I see you have acknowledged this, well done!  Your revised research question is a lot more focussed.  However, why did you you not include the improved research question as your main question for grading though?"
Type ('early'/'late') was specified?,0.35,
Context,,
Context labelled?,0.66,
Context correct?,0.67,
Context explained?,0.0,There is either insufficient detail or ill-fitting descriptions of the given context. 
Population,,"You include both a population and problem.  You need to do one or the other.  From your text here it looks like you are giving more context, and also explaining why you are looking at machine learning as a solution.  What we want here is the population, and I take that to be types of malware."
Population labelled?,0.0,The >population< description has not been identified clearly as such. 
Population explained?,0.0,The population has not been characterised in sufficient detail.  
Problem,,
Problem labelled?,0.0,The >problem< has not been labelled explicitely! 
Problem correct?,0.0,The problem has not been correctly described. 
Problem explained?,0.0,The problem has not been explained in sufficient detail. 
Intervention,,
Intervention labelled?,0.35,
Intervention correct?,0.0,The description of intervention is incorrect. Need to be more specific - I have given you a mark as you do include the required information within the text.
Intervention explained?,0.48,"You have included lots of context about the type of data you will be using, but this is more about what you will be using to detect the malware, which I can see is embedded into the paragraph, as different classifiers."
Comparison,,"You are making an assumption though as you say you are going to compare two classifiers and test them against the same two data sets.  That sounds fine.  But then to say you will select the classifier that performs best in both, is assuming that one will perform better in both.  What if one performs better with one dataset, and the other performs better in the other?  Need to keep an open mind.  Also you do not need to state the specific outcome here, just what you are comparing."
Comparison labelled?,0.35,
Comparison correct?,0.48,
Comparison explained?,0.48,See my comment above about making assumptions.
Outcome,,
Outcome labelled?,0.35,
Outcome correct?,0.48,
Outcome explained?,0.48,"You have been very detailed here, keep it high level, as what we are interested in is what you know now will the type of information you need to answer your research question.  Taking your revised RQ, this will be the levels of accuracy attributed to each classifier, so you can see which one performs better."
Spelling correct?,0.5,
Grammar correct?,0.5,
Is question Comp. Sci. question?,0.5,
All Pico elements correct!,0.0, 
General comments,,"While it is good and desirable to follow the template, you need to adapt it and remove unnessary tags and instructions.  For example, when we asked you to enter ""Problem or Population"", we meant for you to choose one or the other, not both. And why did you leave the question, ""What is being measured and how will it contribute towards answering you research question?"" at the end of the outcome statement?  But I can see you have done a lot of background work here, and have generally grasped what is needed in this assignment. Well done."
